[gd_scene load_steps=5 format=3 uid="uid://caphva2qso4yx"]

[ext_resource type="Script" path="res://objects/fps_player/player.gd" id="1_mdnf2"]

[sub_resource type="CapsuleShape3D" id="CapsuleShape3D_28mna"]

[sub_resource type="CapsuleMesh" id="CapsuleMesh_cmtx4"]

[sub_resource type="BoxShape3D" id="BoxShape3D_qc6sv"]
size = Vector3(1, 0.0537109, 1)

[node name="Player" type="CharacterBody3D"]
collision_layer = 2
collision_mask = 5
script = ExtResource("1_mdnf2")

[node name="CollisionShape3D" type="CollisionShape3D" parent="."]
shape = SubResource("CapsuleShape3D_28mna")

[node name="MeshInstance3D" type="MeshInstance3D" parent="CollisionShape3D"]
transform = Transform3D(1, 0, 0, 0, 1, 0, 0, 0, 1, 0.00751662, 0, 0)
mesh = SubResource("CapsuleMesh_cmtx4")
skeleton = NodePath("../..")

[node name="head" type="Node3D" parent="."]
transform = Transform3D(1, 0, 0, 0, 1, 0, 0, 0, 1, 0, 0.740367, 0)

[node name="Camera3D" type="Camera3D" parent="head"]

[node name="Step_check_bottom" type="Area3D" parent="."]
collision_layer = 2

[node name="CollisionShape3D" type="CollisionShape3D" parent="Step_check_bottom"]
transform = Transform3D(1.1, 0, 0, 0, 1.1, 0, 0, 0, 1.1, 0, -0.916062, 0)
shape = SubResource("BoxShape3D_qc6sv")

[connection signal="body_entered" from="Step_check_bottom" to="." method="_on_step_check_bottom_body_entered"]
